…
treatment_study_data
```

    ## # A tibble: 160 x 4
    ##    subject_id treatment_arm week  result
    ##         <int> <chr>         <chr>  <dbl>
    ##  1          1 control       1       0.2 
    ##  2          1 control       2      -1.31
    ##  3          1 control       3       0.66
    ##  4          1 control       4       1.96
    ##  5          1 control       5       0.23
    ##  6          1 control       6       1.09
    ##  7          1 control       7       0.05
    ##  8          1 control       8       1.94
    ##  9          2 control       1       1.13
    ## 10          2 control       2      -0.88
    ## # … with 150 more rows
…
